<?xml version="1.0" encoding="utf-8"?>
<!-- Generator: Adobe Illustrator 18.0.0, SVG Export Plug-In . SVG Version: 6.00 Build 0)  -->
<!DOCTYPE svg PUBLIC "-//W3C//DTD SVG 1.1//EN" "http://www.w3.org/Graphics/SVG/1.1/DTD/svg11.dtd">
<svg version="1.1" id="Layer_1" xmlns="http://www.w3.org/2000/svg" xmlns:xlink="http://www.w3.org/1999/xlink" x="0px" y="0px"
	 viewBox="7 16 596 776" enable-background="new 7 16 596 776" xml:space="preserve">
<g id="Layer_1_1_">
	<g id="NNOjyC.tif">
		<g>
			<path d="M570.2,500c5.8-36.4,9-73.1,7.6-109.8c-3.5-87.6-27.4-167.1-93.2-229.4c-14.3-13.4-14.8-14-22.7,4.7
				c-27.1,64.3-53.6,128.7-80.4,193c-1.2,2.9-2.6,6.1-6.1,8.7c5.8-33.5,11.6-66.7,17.2-100.2c7.3-45.4,14.6-90.8,21.5-136.3
				c1.5-9,0.3-17.8-3.2-26.8c-10.8-28-21-56.2-35.8-83.9C548.9,94.7,651.4,279.9,570.2,500z"/>
			<path d="M231.9,20.2c-13.1,28.5-23.3,57.4-34.6,86.2c-2,5.5-2.9,10.8-2.3,16.9c9,78.9,24.7,156.6,37.8,235c0.6,2.9,0.9,5.5-0.9,9
				c-10.8-26.5-21.5-53.3-32.9-79.8c-17.5-41.9-35.8-83.9-53-125.8c-4.9-11.6-8.4-13.7-18.6-4.1c-65.2,61.1-90.8,138.9-94.9,225.6
				c-1.7,40.8,0.9,81.2,8.2,121.4C8,411.2-2.5,316.9,34.2,222C71.1,126.8,141,63.3,231.9,20.2z"/>
			<path d="M69.7,580.4c22.1,32.9,47.2,63.8,76,91.4c37.6,35.5,79.8,62.6,129.6,78c9.6,2.9,12.8,0.3,15.7-8.2
				c3.5-10.8,7.9-21.5,13.1-35.8c4.9,13.4,9.6,23,12.2,32.9c3.2,13.1,9.6,13.7,21,9.9c56.5-18.9,103.4-52.1,143.8-95.5
				c20.1-21.5,37.8-45.1,55-69.3c-7.6,24.7-20.4,46.6-34.4,67.8c-33.2,51-75.4,91.7-130.7,118.5c-41.6,20.4-82.4,23.6-125.5,4.1
				C158.8,735,106.1,665.1,69.7,580.4z"/>
		</g>
		<g>
			<path d="M310.8,310.5h-13.4c-3.2,0-5.8-2.6-5.8-5.8l5.5-275.7c0-3.2,2.6-5.8,5.8-5.8h2.6c3.2,0,5.8,2.6,5.8,5.8l5.5,275.7
				C317.2,307.8,314.5,310.5,310.8,310.5z"/>
			<path d="M330.6,37.9h-52.4c-3.2,0-5.8-2.6-5.8-5.8v-3.2c0-3.2,2.6-5.8,5.8-5.8h52.4c3.2,0,5.8,2.6,5.8,5.8v3.2
				C336.4,35.3,333.8,37.9,330.6,37.9z"/>
			<path d="M333.5,67.1h-58.2c-3.2,0-5.8-2.6-5.8-5.8V58c0-3.2,2.6-5.8,5.8-5.8h58.2c3.2,0,5.8,2.6,5.8,5.8v3.2
				C339.3,64.4,336.7,67.1,333.5,67.1z"/>
			<path d="M336.4,100h-64.1c-3.2,0-5.8-2.6-5.8-5.8v-3.2c0-3.2,2.6-5.8,5.8-5.8h64.1c3.2,0,5.8,2.6,5.8,5.8v3.2
				C342.2,97.3,339.6,100,336.4,100z"/>
			<path d="M339.3,137.8h-69.9c-3.2,0-5.8-2.6-5.8-5.8v-3.2c0-3.2,2.6-5.8,5.8-5.8h69.9c3.2,0,5.8,2.6,5.8,5.8v3.2
				C345.1,135.2,342.5,137.8,339.3,137.8z"/>
			<path d="M342.2,179.7h-75.7c-3.2,0-5.8-2.6-5.8-5.8v-3.2c0-3.2,2.6-5.8,5.8-5.8h75.7c3.2,0,5.8,2.6,5.8,5.8v3.2
				C348,177.1,345.4,179.7,342.2,179.7z"/>
			<path d="M345.1,223.4h-81.5c-3.2,0-5.8-2.6-5.8-5.8v-3.2c0-3.2,2.6-5.8,5.8-5.8h81.5c3.2,0,5.8,2.6,5.8,5.8v3.2
				C350.9,220.8,348.3,223.4,345.1,223.4z"/>
			<path d="M348,268h-87.3c-3.2,0-5.8-2.6-5.8-5.8v-3.2c0-3.2,2.6-5.8,5.8-5.8H348c3.2,0,5.8,2.6,5.8,5.8v3.2
				C353.8,265.3,351.2,268,348,268z"/>
			<path d="M348.6,317.2h-91.1c-3.2,0-5.8-2.6-5.8-5.8v-2.9c0-3.2,2.6-5.8,5.8-5.8h91.1c3.2,0,5.8,2.6,5.8,5.8v2.9
				C354.4,314.5,352.1,317.2,348.6,317.2z"/>
		</g>
	</g>
</g>
<g id="Layer_2">
	<g>
		<g enable-background="new    ">
			<path fill="#B01E34" d="M166.4,635.8h-5.7v8h9v6.6h-9v8h1.9v6.6h-10.4v-6.6h1.9v-22.5h-1.9v-6.6H173v9.5h-6.6V635.8z"/>
			<path fill="#B01E34" d="M176.2,664.9v-6.6h1.9v-22.5h-1.9v-6.6h10.4v6.6h-1.9v22.5h5v-2.9h6.6v9.5H176.2z"/>
			<path fill="#B01E34" d="M213.6,664.9v-6.6h1.9l-0.6-2.9h-6.3l-0.6,2.9h1.9v6.6h-10.4v-6.6h1.8l5.8-29.1h9.3l5.8,29.1h1.8v6.6
				H213.6z M209.9,648.9h3.7l-1.8-9.2L209.9,648.9z"/>
			<path fill="#B01E34" d="M247.5,661.2l-4.3,3.7h-11.9l-4.2-3.7V633l4.3-3.8h7.3l2.1,1.9v-1.9h6.6v9.5H241v-2.9h-7.1v22.5h7.1v-8
				h-4.5v-6.6h11.1V661.2z"/>
			<path fill="#B01E34" d="M276.3,635.8h-5.7v8h9v6.6h-9v8h1.9v6.6h-10.4v-6.6h1.9v-22.5h-1.9v-6.6H283v9.5h-6.6V635.8z"/>
			<path fill="#B01E34" d="M306.9,661.2l-4.3,3.7h-12.3l-4.2-3.7V633l4.2-3.8h12.3l4.3,3.8V661.2z M300.3,658.4v-22.5h-7.5v22.5
				H300.3z"/>
			<path fill="#B01E34" d="M330.8,661.2l-4.3,3.7h-12.3l-4.2-3.7V633l4.2-3.8h12.3l4.3,3.8V661.2z M324.2,658.4v-22.5h-7.5v22.5
				H324.2z"/>
			<path fill="#B01E34" d="M350.9,635.8h-1.8v22.5h1.9v6.6h-10.4v-6.6h1.9v-22.5h-1.8v2.9H334v-9.5h23.5v9.5h-6.6V635.8z"/>
			<path fill="#B01E34" d="M362.6,658.4v-22.6h-1.9v-6.6h8.5v1.9l2.1-1.9h7l4.2,3.8v11L380,647l2.5,3.2v11l-4.2,3.7h-17.7v-6.6
				H362.6z M369.2,643.8h6.8v-8h-6.8V643.8z M369.2,658.4h6.8v-8h-6.8V658.4z"/>
			<path fill="#B01E34" d="M399.9,664.9v-6.6h1.9l-0.6-2.9h-6.3l-0.6,2.9h1.9v6.6h-10.4v-6.6h1.8l5.8-29.1h9.3l5.8,29.1h1.8v6.6
				H399.9z M396.2,648.9h3.7l-1.8-9.2L396.2,648.9z"/>
			<path fill="#B01E34" d="M413.4,664.9v-6.6h1.9v-22.5h-1.9v-6.6h10.4v6.6h-1.9v22.5h5v-2.9h6.6v9.5H413.4z"/>
			<path fill="#B01E34" d="M436.8,664.9v-6.6h1.9v-22.5h-1.9v-6.6h10.4v6.6h-1.9v22.5h5v-2.9h6.6v9.5H436.8z"/>
		</g>
	</g>
</g>
<g enable-background="new    ">
	<path fill="#B01E34" d="M174.8,589V527h-5.3v-18.1h23.4v5.1l5.9-5.1h19.3l11.6,10.3v30.2l-7,8.5l7,8.7v30.3l-11.6,10.3h-48.6V589
		H174.8z M192.9,548.9h18.6v-21.9h-18.6V548.9z M192.9,589h18.6v-21.9h-18.6V589z"/>
	<path fill="#B01E34" d="M308.5,607.2V589h5.1l-1.6-7.9h-17.4l-1.6,7.9h5.3v18.1h-28.6V589h4.8l16-80.1h25.5l16,80.1h4.9v18.1H308.5
		z M298.4,563h10.1l-5.1-25.2L298.4,563z"/>
	<path fill="#B01E34" d="M417.8,571V589h5.1v18.1h-28.6V589h5.1v-18.2L384,527.1h-6.9v-18.1h28.6v18.1h-3.3l6.3,18.5l6.1-18.5h-3.1
		v-18.1h27.8v18.1h-5.9L417.8,571z"/>
</g>
<g>
	<g>
		<path fill="none" stroke="#B01E34" stroke-width="60" stroke-miterlimit="10" d="M83.4,529.3C194,382,415.3,382,525.9,529.3"/>
	</g>
	<g id="Layer_2_1_">
		<g>
			<g enable-background="new    ">
				<path fill="#FFFFFF" d="M105.6,520.5c-6.3-5.6-12.6-11.3-19.2-16.7c-0.6,0.9-1.5,1.4-2.1,2.3c-2-1.5-3.7-3.3-5.7-4.8
					c3-3.7,6.2-7.2,9.5-10.6c0.6,0.6,1.1,0.9,1.4,1.5c0.3-1.5,0.6-2.6,0.9-4.1c2.7-2.9,5.3-5.4,8-8c2.6-0.5,5.3-1.1,7.9-1.6
					c2.9,3,5.4,6.2,8.3,9.2c0,1.7-0.4,3.5-0.4,5.2c1.7,0,3.5,0.1,5.2,0.1c2.9,3,5.7,6.2,8.3,9.2c-0.6,2.3-1,4.6-1.6,7.3
					c-5.9,5.7-11.9,11.7-17.2,18.3c-2-1.5-3.7-3.3-5.7-4.8C104.4,521.9,105,521.3,105.6,520.5z M100.1,502c2.4-2.6,4.8-5.2,7.4-7.4
					c-2-2.1-4.3-4.2-6.3-6.5c-2.7,2.6-5,5.2-7.7,7.7C95.8,497.9,97.8,500,100.1,502z M112.2,513.3c2.4-2.3,4.5-4.9,6.8-7.2
					c-2-2.1-4.3-4.2-6.3-6.5c-2.4,2.3-4.7,4.9-7.1,7.4C107.9,509.2,109.9,511.2,112.2,513.3z"/>
				<path fill="#FFFFFF" d="M149.3,489.8c-1.4-2.1-2.8-3.8-4.6-5.9c0.6-0.6,1.5-1.1,2.1-1.7c-0.9-0.6-1.7-1.5-2.6-2.1
					c-2.4,1.7-4.7,3.7-7.1,5.7c0.6,0.9,0.8,2.1,1.4,2.9c0.6-0.6,1.5-1.1,2.1-1.7c1.4,2.1,3.1,3.8,4.6,5.9c-3.8,2.8-7.4,6-10.9,9.4
					c-1.7-1.8-3.1-3.8-4.8-5.6c0.6-0.6,1.2-1.1,1.8-1.7c-5.1-10-9.8-20.3-14.3-30.8c3.8-3.1,7.7-6.3,11.8-9.1
					c8.9,6.9,17.5,14.3,26.1,21.7c0.6-0.6,1.5-0.8,2.1-1.4c1.4,2.1,2.8,4.1,4.3,6.2C156.9,484.1,153.1,487,149.3,489.8z M134,478.8
					c1.5-1.1,3-2.3,4.1-3.4c-2.9-2.1-5.7-4.5-8.3-6.6C131.2,472,132.6,475.5,134,478.8z"/>
				<path fill="#FFFFFF" d="M174.6,455.9c1.1,2.1,2.2,4.4,3.7,6.5c0.9-0.3,1.5-0.8,2.3-1.1c1.1,2.1,2.2,4.4,3.4,6.5
					c-4.1,2.3-8.2,4.5-12.1,7.1c-1.4-2.1-2.5-4.1-4-6.5c0.9-0.6,1.5-0.8,2.4-1.4c-1.1-2.1-2.5-4.4-3.7-6.5
					c-5.5-3.9-10.9-7.5-16.4-11.1c-1.2,0.6-2.1,1.4-3.2,2c-1.4-2.1-2.8-4.1-4-6.2c4.7-2.8,9.1-5.7,13.8-8.5c1.1,2.1,2.5,4.4,3.7,6.5
					c-0.6,0.3-1.2,0.6-1.5,0.8c2.3,1.5,4.6,3.3,6.6,4.8c-0.2-2.6-0.5-5.5-0.7-8.2c-0.6,0.3-0.9,0.6-1.5,0.8
					c-1.1-2.1-2.5-4.4-3.7-6.5c4.7-2.5,9.1-5.1,13.8-7.3c1.1,2.3,2.2,4.4,3.4,6.8c-0.9,0.6-2.1,0.8-2.9,1.4
					C174,442.8,174.2,449.2,174.6,455.9z"/>
				<path fill="#FFFFFF" d="M226.6,449.9c-0.8-2.3-1.4-4.7-2.2-7c0.9-0.3,1.8-0.6,2.3-0.8c-0.6-0.9-1.1-2.1-1.7-2.9
					c-2.6,0.8-5.6,1.6-8.2,2.8c0,1.2,0.2,2.3,0.2,3.2c0.9-0.3,1.8-0.6,2.3-0.8c0.8,2.3,1.7,4.7,2.5,7c-4.4,1.4-8.8,3-12.9,4.7
					c-0.8-2.3-2-4.7-2.8-7c0.9-0.3,1.5-0.6,2.3-0.8c-1.5-11.1-2.8-22.5-3.5-33.6c4.4-1.7,9.1-3,13.5-4.4
					c5.9,9.7,11.6,19.4,17.2,29.1c0.9-0.3,1.5-0.6,2.3-0.5c0.5,2.3,1.4,4.7,1.9,7.3C235.4,447.1,231,448.5,226.6,449.9z
					 M216.1,434.2c1.8-0.6,3.2-1.1,5-1.7c-2-2.9-3.7-5.9-5.7-9.1C215.6,427.2,215.9,430.7,216.1,434.2z"/>
				<path fill="#FFFFFF" d="M273.6,439.6c-3.2,0.2-6.1,0.8-9.3,1.3c-3.4-5-6.8-10-10.2-14.7c-0.9,0.3-1.8,0.3-2.6,0.5
					c0.5,2.9,1.1,5.8,1.6,8.8c0.9-0.3,1.8-0.3,2.6-0.5c0.5,2.3,0.8,5,1.3,7.3c-4.4,0.8-9.1,1.9-13.4,3c-0.5-2.3-1.1-4.7-1.6-7.3
					c0.9-0.3,1.8-0.3,2.6-0.5c-1.9-8.2-3.8-16.4-5.7-24.6c-0.9,0.3-1.8,0.6-2.6,0.5c-0.5-2.3-1.1-4.7-1.6-7.3
					c4.1-1.1,8.5-1.9,12.6-2.7c0.3,0.6,0.3,1.5,0.5,2c0.9-0.9,1.8-1.7,2.7-2.6c3.5-0.5,7-1.3,10.5-1.8c2.3,1.2,4.6,2.1,6.9,3.3
					c0.5,5,1.3,9.6,1.8,14.6c-1.8,1.7-3.9,3.7-5.6,5.4c2,2.7,3.7,5.6,5.7,8.3c1.2-0.3,2.3-0.2,3.5-0.5
					C273.1,434.7,273.4,437.3,273.6,439.6z M250.1,419.1c3.2-0.5,6.4-1.3,9.6-1.9c-0.5-2.9-1.1-5.8-1.3-8.8c-3.2,0.5-6.7,1-9.9,1.9
					C249.1,413.3,249.6,416.2,250.1,419.1z"/>
				<path fill="#FFFFFF" d="M278,439.1c-0.2-2.3-0.5-5-0.7-7.3c0.9,0,1.8-0.3,2.6-0.2c-0.7-8.5-1.4-16.9-2.5-25.4
					c-0.9,0-1.8,0.3-2.9,0.2c-0.2-2.3-0.5-5-0.7-7.3c10.5-1,21-1.7,31.5-1.5c-0.1,3.5-0.1,7,0.1,10.8c-3.2-0.1-6.4,0.2-9.6,0.1
					c0-1.2,0-2-0.2-3.2c-2.9-0.1-5.8,0.2-8.5,0.4c0.2,2.9,0.5,5.8,0.4,9c4.4-0.2,8.7-0.4,12.8-0.4c0,2.6,0.2,5,0.2,7.6
					c-4.1-0.1-8.4,0.1-12.5,0.4c0.2,2.9,0.5,5.8,0.4,9c2.6-0.2,5.2-0.2,7.9-0.4c0-1.2,0-2-0.2-3.2c2.9,0.1,6.1-0.2,9-0.1
					c-0.1,3.5-0.1,7,0.1,10.8C296.1,437.7,287.1,438.1,278,439.1z"/>
				<path fill="#FFFFFF" d="M327.8,438.9c0.3-2.3,0.4-4.9,0.7-7.3c0.9,0,1.7,0,2.6,0.3c-0.3-1.2-0.2-2.3-0.5-3.2
					c-2.9-0.3-5.8-0.4-8.7-0.7c-0.3,1.2-0.6,2-0.9,3.2c0.9,0,1.7,0,2.6,0c0,2.3-0.4,4.9-0.4,7.3c-4.7-0.4-9-0.5-13.7-0.5
					c0-2.3,0.1-4.9,0.1-7.3c0.9,0,1.5,0,2.3,0c2.8-10.7,6.2-21.7,9.6-32.4c4.7,0.4,9.3,0.8,14,1.1c1.8,11.1,3.1,22.5,4.3,33.6
					c0.9,0,1.7,0.3,2.3,0.3c-0.3,2.3-0.7,4.9-1,7.3C336.8,439.9,332.5,439.3,327.8,438.9z M324.4,420.5c1.7,0,3.5,0.4,5.2,0.4
					c-0.5-3.5-1-7-1.8-10.5C326.5,413.8,325.6,417,324.4,420.5z"/>
				<path fill="#FFFFFF" d="M383.5,434.6c-0.6,2.3-1.5,4.6-2.2,6.9c0.9,0.3,1.7,0.6,2.3,0.6c-0.6,2.3-1.5,4.6-2.2,6.9
					c-4.3-1.2-8.7-2.5-13.3-3.7c0.6-2.3,1.3-4.9,1.9-7.2c0.9,0.3,1.7,0.3,2.3,0.6c0.6-2.3,1.3-4.9,1.9-7.2c-1-6.4-2.1-12.9-3.4-19.3
					c-1.2-0.3-2.3-0.6-3.5-0.9c0.6-2.3,1-4.9,1.6-7.3c5.2,1.3,10.1,2.5,15.4,3.8c-0.6,2.3-1.2,4.6-1.9,7.2c-0.6-0.3-1.2-0.3-1.7-0.6
					c0.5,2.6,0.8,5.5,1.3,8.2c1.8-2,3.6-4.3,5.4-6.3c-0.6-0.3-1.2-0.3-1.7-0.6c0.6-2.3,1.2-4.6,2.2-7.2c4.9,1.5,9.8,3.1,14.8,4.6
					c-0.9,2.3-1.5,4.6-2.5,6.9c-0.9-0.3-2-0.6-2.9-0.9C392.1,424.9,387.7,429.8,383.5,434.6z"/>
				<path fill="#FFFFFF" d="M420.3,460.6c-2.3,0.5-4.7,0.8-7,1.3c-4.9-2.4-9.8-4.5-15-6.4c-1.1-2.1-2.6-3.8-3.7-5.9
					c3.7-9.8,7.3-20,11-29.8c2.3-0.5,5-1.1,7.6-1.6c5.8,2.1,11.6,4.9,17.3,7.3c1.4,2.1,2.8,4.4,4,6.5
					C429.7,441.6,424.9,451.1,420.3,460.6z M413.5,453.8c3.3-7.8,7-15.3,10.3-23.1c-3.5-1.5-6.9-3-10.4-4.6
					c-3.1,7.8-6.4,15.6-9.5,23.4C407.1,451.1,410.3,452.3,413.5,453.8z"/>
				<path fill="#FFFFFF" d="M450.6,478.1c-2.3,0-5,0.2-7.3,0.2c-4.6-3-9.2-5.7-13.8-8.4c-0.8-2.1-2-4.4-3.1-6.5
					c4.5-8.4,8.7-16.7,13.3-25.4c-0.9-0.3-1.7-0.9-2.6-1.2c1.2-2.3,2.4-4.3,3.3-6.6c4.6,2.4,9.5,5.1,14.1,7.8
					c-1.2,2-2.4,4.3-3.6,6.3c-0.9-0.6-1.7-0.9-2.6-1.5c-4.2,7.2-8.4,14.7-12.6,21.9c2.9,1.8,5.8,3.3,8.9,5.4
					c4.5-7.2,9-14.4,13.5-21.6c-0.9-0.6-1.7-0.9-2.6-1.5c1.2-2,2.7-4.3,3.9-6.3c4.6,2.7,9.2,5.7,13.5,9c-1.5,2-2.7,4-4.2,6
					c-0.9-0.6-1.7-1.2-2.3-1.5C461.3,462.3,456,470.3,450.6,478.1z"/>
				<path fill="#FFFFFF" d="M493.4,475.1c-0.9-0.6-1.4-1.2-2.3-1.8c-5.4,6.6-11,12.9-16.4,19.5c0.6,0.6,1.4,1.2,2,1.8
					c-1.5,2-3.3,3.7-4.8,5.7c-3.7-3.3-7.5-6.2-11.2-8.9c1.5-2,3-4,4.5-6c0.6,0.6,1.4,1.2,2,1.5c5.1-6.6,10.4-13.2,15.5-20.1
					c-0.9-0.6-1.4-1.2-2.3-1.8c-0.6,0.9-1.2,1.7-2.1,2.6c-2.6-2.1-5.5-4.2-8-6c2.1-2.9,4.2-5.7,6.3-8.6c10.1,7.2,19.8,14.9,29,23.5
					c-2.4,2.6-4.8,5.2-7.1,7.7c-2.6-2.4-5.2-4.5-7.7-6.8C492,476.8,492.8,475.9,493.4,475.1z"/>
				<path fill="#FFFFFF" d="M496.1,523.5c1.8-1.7,3.6-3.4,5.6-4.8c0.6,0.6,1.1,1.5,1.7,2.1c2.4-2,4.4-4,6.8-6
					c-2.6-3-5.1-5.6-7.7-8.3c-2.1,2-4.4,4-6.5,6.3c0.6,0.6,1.1,1.5,2,2.1c-1.8,1.7-3.6,3.4-5.3,5.1c-3.4-3.6-6.9-7.1-10.3-10.4
					c1.8-1.7,3.6-3.4,5-5.4c0.6,0.6,1.4,1.2,2,1.8c5.9-6,11.9-12,17.8-18c-0.6-0.6-1.4-1.5-2-2.1c1.8-1.7,3.6-3.4,5-5.4
					c4,3.9,8,8,11.7,12.2c-1.8,1.7-3.6,3.4-5.3,5.1c-0.6-0.9-1.4-1.5-2-2.1c-2.1,2-4.4,4-6.5,6.3c2.6,2.7,5.1,5.6,7.7,8.6
					c2.4-2,4.4-4,6.8-6c-0.6-0.9-1.4-1.5-2-2.4c1.8-1.7,3.6-3.4,5.6-4.8c3.7,4.1,7.4,8.6,11.1,13c-2.1,1.4-3.8,3.1-5.9,4.6
					c-0.6-0.9-1.4-1.5-2-2.4c-6.5,5.4-13,10.5-19.8,15.9c0.6,0.6,1.1,1.5,1.7,2.1c-2.1,1.4-3.8,3.1-5.9,4.6
					C502.3,530.8,499.2,527,496.1,523.5z"/>
			</g>
		</g>
	</g>
</g>
</svg>
